[
 { "model": "lara_substances.substanceclass",
   "pk": 1, 
   "fields": {"name": "salt", 
   "description": "salt"}
 },
 { "model": "lara_substances.substanceclass", 
  "pk": 2, 
   "fields": {"name": "sugar", 
   "description": "sugar"}
 }
]
