"Nr.","substance_name","synonyms","CAS","amount","location","vendor","product_no","remarks"
1,"cis-2,3-Dimethyloxiran",,"1758-33-4","1ml","C213/I/1","Fluka","41029",
2,"trans-2,3-Dimethyloxiran",,"21490-63-1","1ml","C213/I/1","Fluka","41031",
3,"5,5`-Dithiobis(2-nitrobenzolsäure) (3,3`-6)","DTNB","69-78-3","1g","C213/I/1","Fluka","43760",
4,"Ethylbenzen",,"100-41-4","5ml","C213/I/1","Fluka","03079",
5,"Thymidin",,"50-89-5","1g","C213/I/1","Fluka","89270",
6,"3-Aminoacetophenon",,"99-03-6","1g","C213/I/1","Fluka","06629",
7,"Valeriansäure",,"109-52-4","1ml","C213/I/1","Fluka","75054",
8,"(+)-Menthol",,"15356-60-2","25 g","C213/I/3","Alfa Aesar","L06102",
9,"7-Ethoxycumarin",,"31005-02-4","250mg","C213/I/1","Fluka","02644",
10,"Methyl (R)-3-hydroxybutyrat","(R)-3-Hydroxybuttersäuremethylester","3976-69-0","1ml","C213/I/1","Fluka","54957",
11,"(R)-3-Phenylbuttersäure","(R)-β-Methylhydrocinnamic acid","772-14-5","5 ml","C213/I/1","Aldrich","78239","Elena"
12,"N-Methyl-N-trimethylsilylheptafluorobutyramid",,"53296-64-3","5ml","C213/I/1","Fluka","69484","Konni"
13,"N-Octanoyl-N-methylglucamin",,"85316-98-9","1g","C213/I/1","Fluka","74881",
14,"Rhodamin 6 G",,"989-38-8","1g","C213/I/1","Fluka","83697",
15,"Valeriansäuremethylester","Methylvalerat","624-24-8","1ml","C213/I/1","Fluka","94560",
16,"(S)-3-Phenylbuttersäure","(S)-β-Methylhydrocinnamic acid","772-15-6","5 ml","C213/I/1","Aldrich","78240","Elena"
17,"S(+)-2-(4-Isobutylphenyl)-propionsäure","S(+)-Ibuprofen","51146-56-6","1g","C213/I/1","Fluka","58635",
18,"3-Nitrophenol",,"554-84-7","250mg","C213/I/1","Riedel de Haen","34363",
19,"p-Toluidin",,"106-49-0","250mg","C213/I/1","Riedel de Haen","45981",
20,"Bromphenolblau",,"34725-61-6","10 g","C213/I/3","Sigma","B5525",
21,"Vinyl-2-ethylhexanoat",,"94-04-2","5g","C213/I/1","Aldrich","136069",
22,"1-Indanon",,"83-33-0","5g","C213/I/1","ABCR","AV11056","Mattias"
23,"Taurocholinsäure Natriumsalz","Taurocholic acid sodiunsalt hydrat","145-42-6","1g","C213/I/1","ACROS","23037",
24,"2-Phenylbutyramid",,"90-26-6","5g","C213/I/1","ACROS","34880",
25,"DL-Isocitronensäurelacton",,"4702-32-3","1g","C213/I/1","ACROS","12255",
26,"4-Isobutyl-alpha-methylphenylessigsäure","Ibuprofen","15687-27-1","1g","C213/I/2","AVOCADO","B20989",
27,"2,2,2-Trifluoro-acetophenone",,"434-45-7","2x5 g","C213/I/1","Aldrich","107840",
28,"Fast Blue B-Salz",,"14263-94-6","5g","C213/I/1","Fluka","44660",
29,"4`-Nitroacetophenon",,"100-19-6","100g","C213/I/4","Aldrich","N9608",
30,"Chromon",,"491-38-3","5g","C213/I/2","Aldrich","199222",
31,"DL-Batylalkohol",,"544-62-7","25 g","C213/I/4","ABCR","AB137044","Kristian"
32,"p-Toluensulfonsäure-monohydrat","p-Toluolsulfonsäure Monohydrat","6192-52-5","5g","C213/I/2","ACROS","13902",
33,"Valeramid",,"626-97-1","5g","C213/I/2","Lancaster","14601",
34,"4`-Chloro-2,2,2-trifluoroacetophenon",,"321-37-9","10g","C213/I/1","Aldrich","112860",
35,"N,N-Dimethylformamiddiisopropylacetat",,"18503-89-4","5g","C213/I/1","Aldrich","178535",
36,"Benzylcyanid","Phenylacetonitril","140-29-4","5 ml","Chemikalienausgabe","Aldrich","B19401",
37,"trans-2-Nonenal",,"18829-56-6","5g","C213/I/1","Aldrich","255653",
38,"Acrylonitril","Vinyl cyanide","107-13-1","5ml","B010 K","Aldrich","110213",
39,"Glykolsäureethylester","Ethylglycolat","623-50-7","5g","C213/I/1","Aldrich","364843",
40,"6-Hydroxycapronsäure","6-Hydroxyhexansäure","1191-25-9","1g","C213/I/1","Aldrich","515302",
41,"trans-2-Pentensäure",,"13991-37-2","5g","C213/I/1","Aldrich","259276",
42,"alpha-Methylbenzylcyanid",,"1823-91-2","5g","C213/I/1","Aldrich","M31503",
43,"Hexanal",,"66-25-1","2ml","C213/I/1","Aldrich","115606",
44,"Propionsäurenitril",,"107-12-0","5ml","Chemikalienausgabe","Aldrich","185590",
45,"2-Methylcyclopentanon",,"1120-72-5","5g","C213/I/1","Aldrich","288438",
46,"N,N-Dimethylformamiddibutylacetal",,"18503-90-7","5g","C213/I/1","Aldrich","178543",
47,"Hexansäure",,"142-62-1",500,"C213/II/6","Sigma","H12137",
48,"2-Methoxyacetophenon",,"579-74-8","10ml","C213/I/1","Fluka","64700",
49,"3-Hydroxybenzonitril",,"873-62-1","5g","C213/I/1","Fluka","54796",
50,"D-Alanin",,"338-69-2","25g","C213/I/4","/ABCR","AB111878","Mattias"
51,"(+/-)-2-Phenylpropionsäure",,"492-37-5","25 g","C213/I/3","Fluka","78995",
